<?xml version="1.0" encoding="utf-8"?>
<!-- Generator: Adobe Illustrator 23.0.4, SVG Export Plug-In . SVG Version: 6.00 Build 0)  -->
<svg version="1.1" id="Layer_1" xmlns="http://www.w3.org/2000/svg" xmlns:xlink="http://www.w3.org/1999/xlink" x="0px" y="0px"
	 width="45.9px" height="41.9px" viewBox="0 0 45.9 41.9" style="enable-background:new 0 0 45.9 41.9;" xml:space="preserve">
<style type="text/css">
	.st0{fill:#FFFFFF;}
</style>
<g id="Logo" transform="translate(-1)">
	<path id="triangle" class="st0" d="M13.7,35.6l-6.3,6.3L1,35.6H13.7z"/>
	<path id="here" class="st0" d="M22.9,21.2c-1.3-1.6-1.3-2.4-0.4-3.2c1-1,2-0.6,3.1,0.5L22.9,21.2z M36.4,4c1-1,2-0.6,3.1,0.5
		l-2.7,2.7C35.6,5.7,35.6,4.8,36.4,4L36.4,4z M44.6,6.8c-1.2,1.8-3.4,4.8-5.6,2.6l5.7-5.7c-0.5-0.5-0.9-1-1.2-1.3
		C40.4-0.7,37-0.7,34.3,2c-1.6,1.5-2.3,3.7-1.8,5.8l-1.8-2c-1.7,1.1-2.2,3.4-1.1,5.1l-2-1.7L25,11.9l3.7,3.7c-2.8-2.2-5.9-2-8.3,0.4
		c-2.6,2.6-2.4,5.8-0.5,8.4l-0.4-0.4c-2.6-2.6-5.4-1.7-6.8-0.3c-1.1,1.1-1.7,2.5-1.5,3.6l-5.6-5.6l-3,3l11,11h5.9l-4-4
		c-2.1-2.1-2.1-3.2-1.1-4.3c1-1,2.1-0.4,4.1,1.6l3.9,3.9l3-3l-3.7-3.7c2.7,2,5.9,2.1,8.8-0.7l0.1-0.1l0,0c1-0.9,1.8-2,2.3-3.2
		l-2.2-1.5c-1.2,1.8-3.4,4.8-5.6,2.6l5.7-5.7l3.5,3.5l3.1-3.1l-4.4-4.4c-1.3-1.1-1.5-3-0.5-4.3c0.1-0.2,0.3-0.3,0.5-0.5
		c0.4,0.9,1,1.7,1.7,2.4c2.9,2.9,6.6,3.5,9.8,0.2l0.1-0.1l0,0c1-0.9,1.8-2,2.3-3.2L44.6,6.8z"/>
</g>
</svg>
