<?xml version="1.0" encoding="utf-8"?>
<!-- Generator: Adobe Illustrator 23.0.4, SVG Export Plug-In . SVG Version: 6.00 Build 0)  -->
<svg version="1.1" id="Layer_1" xmlns="http://www.w3.org/2000/svg" xmlns:xlink="http://www.w3.org/1999/xlink" x="0px" y="0px"
	 width="119px" height="18px" viewBox="0 0 119 18" style="enable-background:new 0 0 119 18;" xml:space="preserve">
<style type="text/css">
	.st0{enable-background:new    ;}
	.st1{fill:#FFFFFF;}
</style>
<g class="st0">
	<path class="st1" d="M2.8,0.7c0.3,0.3,0.5,0.7,0.5,1.1S3.1,2.5,2.8,2.8C2.5,3.1,2.1,3.3,1.6,3.3S0.8,3.1,0.5,2.8
		C0.2,2.5,0.1,2.2,0.1,1.7s0.1-0.8,0.4-1.1c0.3-0.3,0.7-0.4,1.1-0.4S2.5,0.4,2.8,0.7z M3,14H0.3V5H3V14z"/>
	<path class="st1" d="M10.1,4.9c0.6,0.2,1.1,0.4,1.5,0.8l-1,1.5C9.9,6.7,9.1,6.5,8.4,6.5C8,6.5,7.7,6.5,7.6,6.7S7.3,7,7.3,7.2
		c0,0.2,0,0.3,0.1,0.4C7.5,7.8,7.7,7.9,7.9,8c0.3,0.1,0.7,0.3,1.2,0.4c0.9,0.3,1.6,0.6,2.1,1.1s0.7,1,0.7,1.8c0,0.6-0.2,1.2-0.5,1.6
		c-0.4,0.5-0.8,0.8-1.4,1s-1.3,0.4-2,0.4c-0.8,0-1.5-0.1-2.1-0.3c-0.7-0.2-1.2-0.5-1.7-0.9l1.3-1.4c0.8,0.6,1.6,0.9,2.4,0.9
		c0.4,0,0.7-0.1,1-0.2c0.2-0.2,0.3-0.4,0.3-0.7c0-0.2,0-0.4-0.1-0.5s-0.3-0.3-0.5-0.4c-0.3-0.1-0.7-0.3-1.2-0.4
		c-0.9-0.3-1.6-0.6-2-1.1C4.8,8.7,4.6,8.1,4.6,7.4c0-0.5,0.1-1,0.5-1.4c0.3-0.4,0.7-0.7,1.3-1c0.6-0.2,1.2-0.4,1.9-0.4
		C8.9,4.7,9.5,4.7,10.1,4.9z"/>
	<path class="st1" d="M24.4,5.4c0.4,0.5,0.7,1.1,0.7,2V14h-2.7V7.8c0-0.5-0.1-0.8-0.2-0.9s-0.4-0.3-0.6-0.3c-0.6,0-1.1,0.4-1.6,1.2
		V14h-2.7V5h2.3L19.8,6c0.4-0.5,0.8-0.8,1.2-1s0.9-0.3,1.5-0.3C23.3,4.7,23.9,4.9,24.4,5.4z"/>
	<path class="st1" d="M34.2,5.9c0.8,0.9,1.2,2,1.2,3.6c0,1-0.2,1.8-0.5,2.5c-0.4,0.7-0.9,1.3-1.5,1.7c-0.7,0.4-1.4,0.6-2.4,0.6
		c-1.4,0-2.5-0.4-3.2-1.3c-0.8-0.9-1.2-2-1.2-3.6c0-1,0.2-1.8,0.5-2.5c0.4-0.7,0.9-1.3,1.5-1.7s1.4-0.6,2.4-0.6
		C32.3,4.7,33.4,5.1,34.2,5.9z M29.7,7.3c-0.3,0.5-0.4,1.2-0.4,2.2c0,1,0.1,1.7,0.4,2.2c0.3,0.5,0.7,0.7,1.2,0.7
		c0.5,0,1-0.2,1.2-0.7s0.4-1.2,0.4-2.2c0-1-0.1-1.7-0.4-2.2c-0.3-0.5-0.7-0.7-1.2-0.7C30.4,6.6,30,6.9,29.7,7.3z"/>
	<path class="st1" d="M46.7,14h-3.2l-1.2-6.6L41.1,14h-3.2L36,5h2.7l0.9,7L41,5h2.6l1.2,7L46,5h2.6L46.7,14z"/>
	<path class="st1" d="M61,12.3c0.1,0.2,0.3,0.3,0.5,0.4l-0.6,1.7c-0.6,0-1-0.2-1.4-0.4c-0.4-0.2-0.6-0.5-0.8-0.9
		c-0.6,0.9-1.5,1.3-2.7,1.3c-0.9,0-1.6-0.3-2.1-0.8c-0.5-0.5-0.8-1.2-0.8-2.1c0-1,0.4-1.8,1.1-2.3c0.7-0.5,1.8-0.8,3.1-0.8h0.9V8
		c0-0.5-0.1-0.9-0.3-1.1s-0.6-0.3-1.2-0.3c-0.3,0-0.7,0-1.1,0.1c-0.4,0.1-0.9,0.2-1.3,0.3l-0.6-1.8c0.6-0.2,1.1-0.4,1.7-0.5
		c0.6-0.1,1.1-0.2,1.7-0.2c1.3,0,2.2,0.3,2.8,0.8c0.6,0.5,0.9,1.4,0.9,2.5v3.6C60.9,11.9,60.9,12.1,61,12.3z M58.2,11.6V9.8h-0.7
		c-0.6,0-1.1,0.1-1.4,0.4s-0.5,0.6-0.5,1.1c0,0.4,0.1,0.7,0.3,0.9s0.4,0.3,0.8,0.3C57.4,12.5,57.9,12.2,58.2,11.6z"/>
	<path class="st1" d="M72.8,4.8l-0.4,3c-0.3-0.1-0.6-0.1-0.8-0.1c-0.5,0-0.9,0.2-1.2,0.5S69.9,9,69.7,9.7V14H67V5h2.3l0.2,1.8
		c0.2-0.6,0.5-1.1,0.9-1.5c0.4-0.4,0.9-0.6,1.4-0.6C72.2,4.7,72.5,4.7,72.8,4.8z"/>
	<path class="st1" d="M81.3,10.3h-5.6c0.1,0.8,0.3,1.3,0.6,1.6c0.3,0.3,0.8,0.5,1.4,0.5c0.4,0,0.7-0.1,1.1-0.2
		c0.3-0.1,0.7-0.3,1.1-0.6l1.1,1.5c-1.1,0.8-2.2,1.3-3.5,1.3c-1.5,0-2.6-0.4-3.4-1.3c-0.8-0.9-1.2-2-1.2-3.5c0-0.9,0.2-1.8,0.5-2.5
		c0.3-0.7,0.8-1.3,1.4-1.7s1.4-0.6,2.3-0.6c1.3,0,2.3,0.4,3.1,1.2s1.1,2,1.1,3.4C81.4,9.7,81.4,10,81.3,10.3z M78.7,8.6
		c0-1.4-0.5-2.1-1.5-2.1c-0.5,0-0.8,0.2-1.1,0.5s-0.4,0.9-0.5,1.7h3V8.6z"/>
	<path class="st1" d="M90.1,12.3c0.1,0.2,0.3,0.3,0.5,0.4L90,14.3c-0.6,0-1-0.2-1.4-0.4c-0.4-0.2-0.6-0.5-0.8-0.9
		c-0.6,0.9-1.5,1.3-2.7,1.3c-0.9,0-1.6-0.3-2.1-0.8c-0.5-0.5-0.8-1.2-0.8-2.1c0-1,0.4-1.8,1.1-2.3C84,8.7,85,8.4,86.4,8.4h0.9V8
		c0-0.5-0.1-0.9-0.3-1.1s-0.6-0.3-1.2-0.3c-0.3,0-0.7,0-1.1,0.1c-0.4,0.1-0.8,0.2-1.3,0.3l-0.6-1.8c0.6-0.2,1.1-0.4,1.7-0.5
		c0.6-0.1,1.1-0.2,1.7-0.2c1.3,0,2.2,0.3,2.8,0.8C89.7,6,90,6.8,90,7.9v3.6C90,11.9,90,12.1,90.1,12.3z M87.3,11.6V9.8h-0.7
		c-0.6,0-1.1,0.1-1.4,0.4s-0.5,0.6-0.5,1.1c0,0.4,0.1,0.7,0.3,0.9s0.4,0.3,0.8,0.3C86.5,12.5,87,12.2,87.3,11.6z"/>
	<path class="st1" d="M92.5,13.7c-0.4-0.4-0.7-1.1-0.7-1.9V1.4l2.7-0.3v10.7c0,0.4,0.2,0.6,0.5,0.6c0.2,0,0.3,0,0.4-0.1l0.5,1.8
		c-0.5,0.2-1,0.3-1.6,0.3C93.5,14.3,92.9,14.1,92.5,13.7z"/>
	<path class="st1" d="M99.5,0.7c0.3,0.3,0.4,0.7,0.4,1.1s-0.2,0.8-0.4,1.1c-0.3,0.3-0.7,0.4-1.1,0.4s-0.8-0.1-1.1-0.4
		s-0.4-0.7-0.4-1.1s0.1-0.8,0.4-1.1s0.7-0.4,1.1-0.4S99.2,0.4,99.5,0.7z M99.7,14h-2.7V5h2.7V14z"/>
	<path class="st1" d="M107.5,13.7c-0.3,0.2-0.7,0.4-1.1,0.5c-0.4,0.1-0.9,0.2-1.3,0.2c-2,0-3-1.1-3-3.3V6.8h-1.3V5h1.3V3l2.7-0.3V5
		h2.1l-0.3,1.8h-1.8v4.4c0,0.4,0.1,0.8,0.2,0.9c0.1,0.2,0.4,0.3,0.6,0.3c0.3,0,0.6-0.1,1-0.3L107.5,13.7z"/>
	<path class="st1" d="M113.3,14c-0.4,1.2-1,2.1-1.8,2.7c-0.8,0.6-1.9,1-3.3,1.1l-0.3-1.8c0.9-0.1,1.5-0.3,1.9-0.6s0.7-0.7,1-1.4
		h-0.9l-2.8-9h2.9l1.6,7.3l1.8-7.3h2.8L113.3,14z"/>
	<path class="st1" d="M118.5,11.7c0.3,0.3,0.5,0.7,0.5,1.1c0,0.4-0.2,0.8-0.5,1.1s-0.7,0.4-1.1,0.4c-0.4,0-0.8-0.1-1.1-0.4
		s-0.5-0.7-0.5-1.1c0-0.4,0.1-0.8,0.5-1.1s0.7-0.4,1.1-0.4C117.8,11.3,118.2,11.5,118.5,11.7z"/>
</g>
</svg>
